<?xml version="1.0" encoding="UTF-8" standalone="no"?>
<svg
   xmlns:dc="http://purl.org/dc/elements/1.1/"
   xmlns:cc="http://creativecommons.org/ns#"
   xmlns:rdf="http://www.w3.org/1999/02/22-rdf-syntax-ns#"
   xmlns:svg="http://www.w3.org/2000/svg"
   xmlns="http://www.w3.org/2000/svg"
   xmlns:sodipodi="http://sodipodi.sourceforge.net/DTD/sodipodi-0.dtd"
   xmlns:inkscape="http://www.inkscape.org/namespaces/inkscape"
   version="1.1"
   x="0px"
   y="0px"
   viewBox="0 0 50 62.5"
   enable-background="new 0 0 50 50"
   xml:space="preserve"
   id="svg12"
   sodipodi:docname="bin.svg"
   inkscape:version="0.92.3 (2405546, 2018-03-11)"><metadata
     id="metadata18"><rdf:RDF><cc:Work
         rdf:about=""><dc:format>image/svg+xml</dc:format><dc:type
           rdf:resource="http://purl.org/dc/dcmitype/StillImage" /></cc:Work></rdf:RDF></metadata><defs
     id="defs16" /><sodipodi:namedview
     pagecolor="#ffffff"
     bordercolor="#666666"
     borderopacity="1"
     objecttolerance="10"
     gridtolerance="10"
     guidetolerance="10"
     inkscape:pageopacity="0"
     inkscape:pageshadow="2"
     inkscape:window-width="1853"
     inkscape:window-height="1032"
     id="namedview14"
     showgrid="false"
     inkscape:zoom="3.776"
     inkscape:cx="25"
     inkscape:cy="31.25"
     inkscape:window-x="0"
     inkscape:window-y="0"
     inkscape:window-maximized="0"
     inkscape:current-layer="svg12" /><g
     id="g6"><path
       d="M19.5,9.7V1L5.6,14.9h8.7C17.2,14.9,19.5,12.6,19.5,9.7z"
       id="path2" /><path
       d="M39.3,1H20.5v8.7c0,3.4-2.7,6.1-6.1,6.1H5.6v28c0,2.8,2.3,5.1,5.1,5.1h28.5c2.8,0,5.1-2.3,5.1-5.1V6.1   C44.4,3.3,42.1,1,39.3,1z M24,16.6h5.3c0.6,0,1,0.4,1,1c0,0.6-0.4,1-1,1H24c-0.6,0-1-0.4-1-1C23,17,23.4,16.6,24,16.6z M12.4,21.6   H17h0.7h0.7c0.6,0,1,0.4,1,1s-0.4,1-1,1h-0.7H17h-4.6c-0.6,0-1-0.4-1-1S11.8,21.6,12.4,21.6z M12.4,26.6h5.3c0.6,0,1,0.4,1,1   c0,0.6-0.4,1-1,1h-5.3c-0.6,0-1-0.4-1-1C11.4,27,11.8,26.6,12.4,26.6z M12.4,31.6H17h0.7h2.2c0.6,0,1,0.4,1,1s-0.4,1-1,1h-2.2H17   h-4.6c-0.6,0-1-0.4-1-1S11.8,31.6,12.4,31.6z M12.4,36.6h6.9c0.6,0,1,0.4,1,1c0,0.6-0.4,1-1,1h-6.9c-0.6,0-1-0.4-1-1   C11.4,37,11.8,36.6,12.4,36.6z M26,43.6h-8.4H17h-4.6c-0.6,0-1-0.4-1-1c0-0.6,0.4-1,1-1H17h0.7H26c0.6,0,1,0.4,1,1   C27,43.2,26.6,43.6,26,43.6z M22.3,37.5c-0.5,0-0.9-0.5-0.8-1l0.9-6.1c-1.4-0.9-2.3-2.4-2.3-4.2c0-2.3,1.6-4.3,3.8-4.8   c0.4-0.1,0.7-0.1,1.1-0.1c2.7,0,4.9,2.2,4.9,4.9c0,1.8-0.9,3.3-2.3,4.2l0.9,6.1c0.1,0.5-0.3,1-0.8,1H22.3z M37.6,43.6h-8.4   c-0.6,0-1-0.4-1-1c0-0.6,0.4-1,1-1h8.4c0.6,0,1,0.4,1,1C38.6,43.2,38.2,43.6,37.6,43.6z M37.6,38.6h-5.3c-0.6,0-1-0.4-1-1   c0-0.6,0.4-1,1-1h5.3c0.6,0,1,0.4,1,1C38.6,38.1,38.2,38.6,37.6,38.6z M37.6,33.6h-6.9c-0.6,0-1-0.4-1-1s0.4-1,1-1h6.9   c0.6,0,1,0.4,1,1S38.2,33.6,37.6,33.6z M37.6,28.6h-5.3c-0.6,0-1-0.4-1-1c0-0.6,0.4-1,1-1h5.3c0.6,0,1,0.4,1,1   C38.6,28.1,38.2,28.6,37.6,28.6z M37.6,23.6h-5.3c-0.6,0-1-0.4-1-1s0.4-1,1-1h5.3c0.6,0,1,0.4,1,1S38.2,23.6,37.6,23.6z M37.6,18.6   h-5.3c-0.6,0-1-0.4-1-1c0-0.6,0.4-1,1-1h5.3c0.6,0,1,0.4,1,1C38.6,18.1,38.2,18.6,37.6,18.6z M37.6,13.5h-8.4c-0.6,0-1-0.4-1-1   c0-0.6,0.4-1,1-1h8.4c0.6,0,1,0.4,1,1C38.6,13.1,38.2,13.5,37.6,13.5z"
       id="path4" /></g><text
     x="0"
     y="65"
     fill="#000000"
     font-size="5px"
     font-weight="bold"
     font-family="'Helvetica Neue', Helvetica, Arial-Unicode, Arial, Sans-serif"
     id="text8">Created by ProSymbols</text>
</svg>