<?xml version="1.0" encoding="UTF-8" standalone="no"?>
<svg
   xmlns:dc="http://purl.org/dc/elements/1.1/"
   xmlns:cc="http://creativecommons.org/ns#"
   xmlns:rdf="http://www.w3.org/1999/02/22-rdf-syntax-ns#"
   xmlns:svg="http://www.w3.org/2000/svg"
   xmlns="http://www.w3.org/2000/svg"
   xmlns:sodipodi="http://sodipodi.sourceforge.net/DTD/sodipodi-0.dtd"
   xmlns:inkscape="http://www.inkscape.org/namespaces/inkscape"
   data-name="Layer 1"
   viewBox="0 0 100 125"
   x="0px"
   y="0px"
   version="1.1"
   id="svg16"
   sodipodi:docname="search.svg"
   inkscape:version="0.92.3 (2405546, 2018-03-11)">
  <metadata
     id="metadata22">
    <rdf:RDF>
      <cc:Work
         rdf:about="">
        <dc:format>image/svg+xml</dc:format>
        <dc:type
           rdf:resource="http://purl.org/dc/dcmitype/StillImage" />
      </cc:Work>
    </rdf:RDF>
  </metadata>
  <defs
     id="defs20" />
  <sodipodi:namedview
     pagecolor="#ffffff"
     bordercolor="#666666"
     borderopacity="1"
     objecttolerance="10"
     gridtolerance="10"
     guidetolerance="10"
     inkscape:pageopacity="0"
     inkscape:pageshadow="2"
     inkscape:window-width="640"
     inkscape:window-height="480"
     id="namedview18"
     showgrid="false"
     inkscape:zoom="1.888"
     inkscape:cx="50"
     inkscape:cy="62.5"
     inkscape:window-x="0"
     inkscape:window-y="0"
     inkscape:window-maximized="0"
     inkscape:current-layer="svg16" />
  <title
     id="title2">Untitled-2-24</title>
  <g
     data-name="Group"
     id="g10">
    <g
       data-name="Group"
       id="g6">
      <path
         data-name="Compound Path"
         d="M78.06,20a39.93,39.93,0,0,0-3.75-3.95l-.12-.11L74,15.77c-1-.93-2.09-1.81-3.2-2.64l-.13-.1a42.36,42.36,0,0,0-50.34,0l-.13.1C19.1,14,18,14.84,17,15.77a1.45,1.45,0,0,0-.18.16l-.12.11A42.69,42.69,0,0,0,13,20a42.37,42.37,0,0,0-.31,53.82,38.81,38.81,0,0,0,4,4.29,4.28,4.28,0,0,0,.44.4h0a42.42,42.42,0,0,0,40.46,9.2.73.73,0,0,0-.07-1.42,23.69,23.69,0,0,1-9-4,31.81,31.81,0,0,1-4.18-3.85.73.73,0,0,0-1.3.47v3.48c-4.86-1.18-9.16-5.72-12.17-12.33a27.11,27.11,0,0,1,7.42-3.26.75.75,0,0,0,.55-.81,23,23,0,0,1-.19-2.89.73.73,0,0,0-.91-.7,31.31,31.31,0,0,0-8.52,3.51,57.63,57.63,0,0,1-2.84-15.75H41.92a.73.73,0,0,0,.61-.33,24.33,24.33,0,0,1,5.24-5.66.73.73,0,0,0,.29-.57v-9.9h0a31.88,31.88,0,0,0,14.16-4.61l0,.13a56.23,56.23,0,0,1,2,9.41.74.74,0,0,0,.66.64c.85.09,1.68.23,2.5.4a.73.73,0,0,0,.88-.81,57.63,57.63,0,0,0-2.75-12l-.06-.16.06,0a32.24,32.24,0,0,0,4.91-4.93l.12-.15c.29-.37.57-.76.86-1.15a34,34,0,0,1,2.65,2.86,37.08,37.08,0,0,1,8.57,21.76H80a.74.74,0,0,0-.53,1.25,23.91,23.91,0,0,1,3,3.83h.09a.57.57,0,0,1,0,.13,23.8,23.8,0,0,1,2.8,6.3.74.74,0,0,0,1.43,0A42.46,42.46,0,0,0,78.06,20ZM23.29,17.26a.33.33,0,0,0,.11-.1,37.31,37.31,0,0,1,12.15-5.91,24.4,24.4,0,0,0-2.73,2.59,34.29,34.29,0,0,0-5.53,8.57l-.09-.08a25.89,25.89,0,0,1-3.29-3.5c-.06-.06-.11-.13-.16-.19-.28-.36-.55-.73-.82-1.1Zm-6.37,6a36,36,0,0,1,2.66-2.86c.28.39.56.77.87,1.15l.11.15a32.24,32.24,0,0,0,4.91,4.93l.06,0-.06.16a60.64,60.64,0,0,0-3.23,18.19H8.37A36.93,36.93,0,0,1,16.92,23.3Zm4,49.55c-.36.41-.69.84-1,1.27a34.19,34.19,0,0,1-3.28-3.53A37.11,37.11,0,0,1,8.43,50.14H22.28a59.68,59.68,0,0,0,3.5,18.05A31.26,31.26,0,0,0,21,72.85Zm6.61-.43a33.8,33.8,0,0,0,5.25,7.94A22.89,22.89,0,0,0,35.54,83a37.15,37.15,0,0,1-11.92-5.77L23.3,77c.32-.43.66-.85,1-1.26A26.42,26.42,0,0,1,27.56,72.42ZM43,45.06H26.26A58.79,58.79,0,0,1,28.79,29.2l0-.13A31.59,31.59,0,0,0,43,33.68Zm0-15.84A27.3,27.3,0,0,1,30.4,24.79C33.34,17.87,37.66,13,42.58,11.64h0l.37-.1Zm5.09,0h0V11.54h0l.38.1h0c4.92,1.4,9.23,6.23,12.17,13.15A27.38,27.38,0,0,1,48.06,29.22ZM67.27,18.63a1.25,1.25,0,0,1-.15.19,25.16,25.16,0,0,1-3.28,3.49l-.09.08a34.7,34.7,0,0,0-5.51-8.54h0a23.68,23.68,0,0,0-2.73-2.6,37.26,37.26,0,0,1,12.12,5.91.31.31,0,0,0,.13.1l.34.27C67.82,17.9,67.56,18.27,67.27,18.63Z"
         id="path4" />
    </g>
    <path
       data-name="Compound Path"
       d="M96.82,89.49a5.29,5.29,0,0,0-2-3.76l-15.54-12A.87.87,0,0,1,79,72.63,19.22,19.22,0,0,0,77.5,51.06a19.68,19.68,0,0,0-2.07-2.23,19.25,19.25,0,0,0-3.57-2.6,18.36,18.36,0,0,0-2.28-1.1,19.85,19.85,0,0,0-3.66-1.06,19.35,19.35,0,0,0-11.63,1.49,19,19,0,0,0-6,4.4,18.24,18.24,0,0,0-2.47,3.34,19,19,0,0,0-2.43,7.06,18.82,18.82,0,0,0-.12,4,19.15,19.15,0,0,0,6.14,12.7l.11.1a20.49,20.49,0,0,0,1.89,1.51,19.22,19.22,0,0,0,21.88.08.88.88,0,0,1,1.14.14l13.2,14.59a5.2,5.2,0,0,0,3.9,1.74h0a5.22,5.22,0,0,0,3.88-1.71,5.33,5.33,0,0,0,1.4-3.61C96.84,89.8,96.83,89.64,96.82,89.49Zm-46.23-25a8.09,8.09,0,0,1-.09-1,11.68,11.68,0,0,1,.26-3,11.93,11.93,0,0,1,14.87-9,12.15,12.15,0,0,1,3.5,1.62,11.94,11.94,0,0,1-6.21,21.8,13,13,0,0,1-1.66,0,12.23,12.23,0,0,1-3.72-1A11.93,11.93,0,0,1,50.59,64.46Z"
       id="path8" />
  </g>
</svg>
