<?xml version="1.0" encoding="UTF-8" standalone="no"?>
<svg
   xmlns:dc="http://purl.org/dc/elements/1.1/"
   xmlns:cc="http://creativecommons.org/ns#"
   xmlns:rdf="http://www.w3.org/1999/02/22-rdf-syntax-ns#"
   xmlns:svg="http://www.w3.org/2000/svg"
   xmlns="http://www.w3.org/2000/svg"
   xmlns:sodipodi="http://sodipodi.sourceforge.net/DTD/sodipodi-0.dtd"
   xmlns:inkscape="http://www.inkscape.org/namespaces/inkscape"
   version="1.1"
   x="0px"
   y="0px"
   viewBox="0 0 32 40"
   enable-background="new 0 0 32 32"
   xml:space="preserve"
   id="svg20"
   sodipodi:docname="survey.svg"
   inkscape:version="0.92.3 (2405546, 2018-03-11)"><metadata
     id="metadata26"><rdf:RDF><cc:Work
         rdf:about=""><dc:format>image/svg+xml</dc:format><dc:type
           rdf:resource="http://purl.org/dc/dcmitype/StillImage" /></cc:Work></rdf:RDF></metadata><defs
     id="defs24" /><sodipodi:namedview
     pagecolor="#ffffff"
     bordercolor="#666666"
     borderopacity="1"
     objecttolerance="10"
     gridtolerance="10"
     guidetolerance="10"
     inkscape:pageopacity="0"
     inkscape:pageshadow="2"
     inkscape:window-width="1346"
     inkscape:window-height="778"
     id="namedview22"
     showgrid="false"
     inkscape:zoom="5.9"
     inkscape:cx="16"
     inkscape:cy="20"
     inkscape:window-x="0"
     inkscape:window-y="0"
     inkscape:window-maximized="0"
     inkscape:current-layer="svg20" /><path
     d="M26.47,22.133c0.11-0.059,0.22-0.112,0.328-0.153l0.811-0.313c0.945-0.364,0.959-0.996,0.031-1.403l-1.867-0.819  c-0.929-0.406-2.446-1.073-3.375-1.479l-1.867-0.819c-0.93-0.407-1.355,0.019-0.948,0.947l0.82,1.868  c0.405,0.928,1.072,2.446,1.479,3.374l0.818,1.868c0.408,0.928,1.039,0.913,1.404-0.032l0.312-0.81  c0.042-0.108,0.095-0.218,0.154-0.328l2.458,2.458l1.9-1.899L26.47,22.133z"
     id="path2" /><path
     d="M3.071,6.837v3.209c0,0.733,0.595,1.328,1.327,1.328h4.428V5.509H4.398C3.666,5.509,3.071,6.104,3.071,6.837z M5.947,10.482  c-0.237,0-0.43-0.192-0.43-0.431c0-0.236,0.192-0.43,0.43-0.43c0.238,0,0.431,0.193,0.431,0.43  C6.377,10.29,6.185,10.482,5.947,10.482z M5.939,6.4c0.412,0,0.758,0.166,0.973,0.468C7.128,7.173,7.187,7.58,7.064,7.933  c-0.079,0.229-0.24,0.412-0.396,0.589C6.462,8.755,6.283,8.956,6.283,9.235H5.611c0-0.533,0.307-0.881,0.554-1.159  c0.117-0.133,0.229-0.259,0.265-0.363c0.041-0.121,0.039-0.31-0.065-0.454C6.277,7.135,6.132,7.072,5.939,7.072  c-0.417,0-0.495,0.487-0.502,0.542L4.77,7.531C4.818,7.14,5.123,6.4,5.939,6.4z"
     id="path4" /><path
     d="M25.648,10.046V6.837c0-0.733-0.596-1.328-1.328-1.328H10.265v5.865H24.32C25.052,11.374,25.648,10.779,25.648,10.046z"
     id="path6" /><path
     d="M3.071,13.973v3.209c0,0.733,0.595,1.328,1.327,1.328h4.428v-5.865H4.398C3.666,12.645,3.071,13.238,3.071,13.973z   M5.947,17.618c-0.237,0-0.43-0.192-0.43-0.431c0-0.237,0.192-0.43,0.43-0.43c0.238,0,0.431,0.192,0.431,0.43  C6.377,17.426,6.185,17.618,5.947,17.618z M5.939,13.536c0.412,0,0.758,0.166,0.973,0.468c0.217,0.304,0.275,0.712,0.152,1.064  c-0.079,0.229-0.24,0.412-0.396,0.588c-0.205,0.234-0.385,0.436-0.385,0.715H5.611c0-0.533,0.307-0.881,0.554-1.159  c0.117-0.134,0.229-0.26,0.265-0.363c0.041-0.121,0.039-0.31-0.065-0.454c-0.087-0.124-0.231-0.187-0.425-0.187  c-0.417,0-0.495,0.486-0.502,0.542L4.77,14.667C4.818,14.275,5.123,13.536,5.939,13.536z"
     id="path8" /><path
     d="M3.071,21.107v3.21c0,0.733,0.595,1.328,1.327,1.328h4.428v-5.866H4.398C3.666,19.779,3.071,20.374,3.071,21.107z   M5.947,24.754c-0.237,0-0.43-0.192-0.43-0.431c0-0.237,0.192-0.43,0.43-0.43c0.238,0,0.431,0.192,0.431,0.43  C6.377,24.562,6.185,24.754,5.947,24.754z M5.939,20.671c0.412,0,0.758,0.167,0.973,0.469c0.217,0.304,0.275,0.712,0.152,1.064  c-0.079,0.229-0.24,0.411-0.396,0.588c-0.205,0.233-0.385,0.436-0.385,0.715H5.611c0-0.534,0.307-0.881,0.554-1.16  c0.117-0.133,0.229-0.259,0.265-0.363c0.041-0.121,0.039-0.309-0.065-0.454c-0.087-0.123-0.231-0.187-0.425-0.187  c-0.417,0-0.495,0.487-0.502,0.543L4.77,21.802C4.818,21.411,5.123,20.671,5.939,20.671z"
     id="path10" /><path
     d="M18.564,16.564c0.289-0.443,0.783-0.698,1.354-0.698c0.329,0,0.687,0.084,1.063,0.249l4.355,1.91  c0.191-0.23,0.311-0.521,0.311-0.844v-3.209c0-0.734-0.596-1.328-1.328-1.328H10.265v5.865h8.273  C18.134,17.56,18.326,16.927,18.564,16.564z"
     id="path12" /><polygon
     points="10.265,19.779 10.265,25.646 21.667,25.646 19.093,19.779 "
     id="polygon14" /></svg>